{
  "login": [
    {
      "id": 1,
      "provider": "kakao",
      "accessToken": "mockAccessToken12345",
      "refreshToken": "mockRefreshToken12345",
      "user": {
        "id": 1,
        "role": "ROLE_MENTOR",
        "name": "박혁진",
        "email": "phj123@naver.com",
        "nickname": "코사",
        "profile": "https://picsum.photos/id/870/200/300?grayscale&blur=2",
        "content": "자기소개글"
      }
    }
  ],
  "validate-token": [
    {
      "id": 1,
      "role": "ROLE_MENTOR",
      "name": "박혁진",
      "email": "phj123@naver.com",
      "nickname": "코사",
      "profile": "https://picsum.photos/id/870/200/300?grayscale&blur=2",
      "content": "자기소개글"
    }
  ],
  "q-0": {
    "content": [
      {
        "id": 1,
        "title": "Dummy Question 1",
        "content": "테스트용으로 아주 길게 쓴 내용입니다. 어느정도 길이가 되어야 할지 모르겠어서 일단 할 수 있는데까지 최대한 길게 써보고 박스를 넘어가는듯한 모습이 보이면 ...으로 글 길이를 줄일 예정입니다. 잘 적용되었으면 좋겠네요 그럼 이만",
        "author": {
          "id": 1,
          "name": "박혁진",
          "profileUrl": "https://picsum.photos/id/870/200/300?grayscale&blur=2"
        },
        "createdAt": "2024-10-07T22:28:12.187929",
        "category": "IT/SW",
        "hashtags": ["테스틍1","테스틍2","테스틍3"],
        "likeCount": 3,
        "answerCount": 2,                                                        
        "selected": true
      },
      {
        "id": 2,
        "title": "Dummy Question 2",
        "content": "Dummy Content 2",
        "author": {
          "id": 2,
          "name": "홍길동",
          "profileUrl": null
        },
        "createdAt": "2024-10-07T22:28:12.250351",
        "category": "자바",
        "hashtags": ["테스트1","테스트2","테스트3"],
        "likeCount": 0,
        "answerCount": 0,
        "selected": false
      },
      {
        "id": 3,
        "title": "Dummy Question 3",
        "content": "Dummy Content 3",
        "author": {
          "id": 3,
          "name": "홍길동",
          "profileUrl": null
        },
        "createdAt": "2024-10-07T22:28:12.258351",
        "category": "자바",
        "hashtags": ["테스트1","테스트2","테스트3"],
        "likeCount": 0,
        "answerCount": 0,
        "selected": false
      },
      {
        "id": 4,
        "title": "Dummy Question 4",
        "content": "Dummy Content 4",
        "author": {
          "id": 4,
          "name": "홍길동",
          "profileUrl": null
        },
        "createdAt": "2024-10-07T22:28:12.266351",
        "category": "자바",
        "hashtags": ["테스트1","테스트2","테스트3"],
        "likeCount": 0,
        "answerCount": 0,
        "selected": false
      },
      {
        "id": 5,
        "title": "Dummy Question 5",
        "content": "Dummy Content 5",
        "author": {
          "id": 5,
          "name": "홍길동",
          "profileUrl": null
        },
        "createdAt": "2024-10-07T22:28:12.275352",
        "category": "자바",
        "hashtags": ["테스트1","테스트2","테스트3"],
        "likeCount": 0,
        "answerCount": 0,
        "selected": false
      }
    ],
    "pageable": {
      "pageNumber": 0,
      "pageSize": 5,
      "sort": {
        "empty": true,
        "sorted": false,
        "unsorted": true
      },
      "offset": 0,
      "paged": true,
      "unpaged": false
    },
    "last": false,
    "totalElements": 32,
    "totalPages": 7,
    "number": 0,
    "sort": {
      "empty": true,
      "sorted": false,
      "unsorted": true
    },
    "first": true,
    "numberOfElements": 5,
    "empty": false
  },
  
  "question-detail": {
    "id": 21,
    "title": "코사는 왜 채용연계반에 채용연계를 해주지 않을까요?",
    "content": "코사는 왜 채용연계반에 채용연계를 해주지 않을까요? 속상하네요",
    "author": {
        "id": 3,
        "name": "박혁진",
        "profileUrl": "https://picsum.photos/id/870/200/300?grayscale&blur=2"
    },
    "createdAt": "2024-10-11T11:15:32.549358",
    "category": "IT/SW",
    "hashtags": [
        "SW", "IT", "KOSA"
    ],
    "likeCount": 2,
    "answerCount": 2,
    "answers": [
        {
            "id": 1,
            "content": "싸피 지원하세요",
            "isSelected": true,
            "selectedReview": "감사합니다 너무 도움이 되었어요",
            "author": {
                "id": 4,
                "name": "장원석",
                "profileUrl": "https://picsum.photos/id/870/200/300?grayscale&blur=2"
            },
            "postId": 21,
            "createdAt": "2024-10-10T15:14:05",
            "updatedAt": "2024-10-10T15:14:05"
        },
        {
          "id": 2,
          "content": "멋사 가세요",
          "isSelected": false,
          "selectedReview": null,
          "author": {
              "id": 5,
              "name": "오재혁",
              "profileUrl": "https://picsum.photos/id/870/200/300?grayscale&blur=2"
          },
          "postId": 21,
          "createdAt": "2024-10-11T15:14:05",
          "updatedAt": "2024-10-11T15:14:05"
        }
    ],
    "selected": true
  },
  "mentorings-1":{
    "content":[
      {
        "id": 1,
        "title": "멘토링합니다1",
        "content": "어서오세요1",
        "thumbnailUrl": null,
        "summary": "효율적인 멘토링",
        "author": {
          "id": 1,
          "name": "김철수",
          "profileUrl": "https://picsum.photos/200/301"
        },
        "createdAt": "2024-10-11T10:20:00.12345",
        "category": "IT",
        "hashtags": ["프로그래밍", "개발자", "멘토링"],
        "likeCount": 5,
        "price": 30000,
        "active": true
      },
      {
        "id": 2,
        "title": "멘토링합니다2",
        "content": "어서오세요2",
        "thumbnailUrl": null,
        "summary": "디자인 멘토링",
        "author": {
          "id": 2,
          "name": "이영희",
          "profileUrl": "https://picsum.photos/200/302"
        },
        "createdAt": "2024-10-11T11:22:15.54321",
        "category": "Design",
        "hashtags": ["UX", "UI", "그래픽디자인"],
        "likeCount": 10,
        "price": 45000,
        "active": true
      },
      {
        "id": 3,
        "title": "멘토링합니다3",
        "content": "어서오세요3",
        "thumbnailUrl": null,
        "summary": "경영 전략 멘토링",
        "author": {
          "id": 3,
          "name": "박수현",
          "profileUrl": "https://picsum.photos/200/303"
        },
        "createdAt": "2024-10-11T09:15:30.56789",
        "category": "Business",
        "hashtags": ["경영", "전략", "리더십"],
        "likeCount": 15,
        "price": 60000,
        "active": true
      },
      {
        "id": 4,
        "title": "멘토링합니다4",
        "content": "어서오세요4",
        "thumbnailUrl": null,
        "summary": "마케팅 전략 멘토링",
        "author": {
          "id": 4,
          "name": "최준영",
          "profileUrl": "https://picsum.photos/200/304"
        },
        "createdAt": "2024-10-10T08:45:22.12345",
        "category": "Marketing",
        "hashtags": ["디지털마케팅", "브랜딩", "광고"],
        "likeCount": 8,
        "price": 55000,
        "active": true
      },
      {
        "id": 5,
        "title": "멘토링합니다5",
        "content": "어서오세요5",
        "thumbnailUrl": null,
        "summary": "자기계발 멘토링",
        "author": {
          "id": 5,
          "name": "한지민",
          "profileUrl": "https://picsum.photos/200/305"
        },
        "createdAt": "2024-10-09T07:30:10.23456",
        "category": "Self-Development",
        "hashtags": ["시간관리", "목표설정", "자기계발"],
        "likeCount": 3,
        "price": 40000,
        "active": true
      },
      {
        "id": 6,
        "title": "멘토링합니다6",
        "content": "어서오세요6",
        "thumbnailUrl": null,
        "summary": "기술 컨설팅 멘토링",
        "author": {
          "id": 6,
          "name": "서준혁",
          "profileUrl": "https://picsum.photos/200/306"
        },
        "createdAt": "2024-10-11T06:55:42.65432",
        "category": "Tech",
        "hashtags": ["기술", "AI", "데이터분석"],
        "likeCount": 12,
        "price": 70000,
        "active": true
      },
      {
        "id": 7,
        "title": "멘토링합니다7",
        "content": "어서오세요7",
        "thumbnailUrl": null,
        "summary": "법률 자문 멘토링",
        "author": {
          "id": 7,
          "name": "유미정",
          "profileUrl": "https://picsum.photos/200/307"
        },
        "createdAt": "2024-10-08T05:40:19.76543",
        "category": "Law",
        "hashtags": ["법률", "계약", "자문"],
        "likeCount": 7,
        "price": 50000,
        "active": true
      },
      {
        "id": 8,
        "title": "멘토링합니다8",
        "content": "어서오세요8",
        "thumbnailUrl": null,
        "summary": "음악 교육 멘토링",
        "author": {
          "id": 8,
          "name": "민재훈",
          "profileUrl": "https://picsum.photos/200/308"
        },
        "createdAt": "2024-10-07T04:25:05.87654",
        "category": "Music",
        "hashtags": ["음악", "작곡", "연주"],
        "likeCount": 6,
        "price": 35000,
        "active": true
      },
      {
        "id": 9,
        "title": "멘토링합니다9",
        "content": "어서오세요9",
        "thumbnailUrl": null,
        "summary": "창업 멘토링",
        "author": {
          "id": 9,
          "name": "강민수",
          "profileUrl": "https://picsum.photos/200/309"
        },
        "createdAt": "2024-10-06T03:10:50.98765",
        "category": "Entrepreneurship",
        "hashtags": ["창업", "비즈니스모델", "투자"],
        "likeCount": 14,
        "price": 80000,
        "active": true
      },
      {
        "id": 10,
        "title": "멘토링합니다10",
        "content": "어서오세요10",
        "thumbnailUrl": null,
        "summary": "멘탈케어 멘토링",
        "author": {
          "id": 10,
          "name": "조현아",
          "profileUrl": "https://picsum.photos/200/310"
        },
        "createdAt": "2024-10-05T02:00:45.12345",
        "category": "Wellness",
        "hashtags": ["멘탈케어", "스트레스관리", "마음챙김"],
        "likeCount": 9,
        "price": 60000,
        "active": true
      },
      {
        "id": 11,
        "title": "멘토링합니다11",
        "content": "어서오세요11",
        "thumbnailUrl": null,
        "summary": "교육 멘토링",
        "author": {
          "id": 11,
          "name": "장지훈",
          "profileUrl": "https://picsum.photos/200/311"
        },
        "createdAt": "2024-10-04T01:45:30.23456",
        "category": "Education",
        "hashtags": ["교육", "멘토링", "학습전략"],
        "likeCount": 11,
        "price": 40000,
        "active": true
      },
      {
        "id": 12,
        "title": "멘토링합니다12",
        "content": "어서오세요12",
        "thumbnailUrl": null,
        "summary": "리더십 멘토링",
        "author": {
          "id": 12,
          "name": "이정민",
          "profileUrl": "https://picsum.photos/200/312"
        },
        "createdAt": "2024-10-03T12:30:15.34567",
        "category": "Leadership",
        "hashtags": ["리더십", "팀관리", "동기부여"],
        "likeCount": 18,
        "price": 75000,
        "active": true
      }
    ],
    "pageable": {
      "pageNumber": 0,
      "pageSize": 12,
      "sort": {
          "empty": false,
          "sorted": true,
          "unsorted": false
      },
      "offset": 0,
      "paged": true,
      "unpaged": false
    },
    "last": true,
    "totalPages": 4,
    "totalElements": 37,
    "size": 5,
    "number": 0,
    "sort": {
      "empty": false,
      "sorted": true,
      "unsorted": false
    },
    "first": true,
    "numberOfElements": 12,
    "empty": false
  }
}